Nome,Cognome,Eta,Citta,Telefono,Via
Flavio,Giannini,47,Roma,03949850,ViaA
Mario,Rossi,52,Firenze,3994943030,ViaB
Giuliano,Fabbri,38,Milano,39394930,ViaC,
Filippo,Crugnari,35,Bologna,930940403,ViaD
Gianni,Paccini,42,Napoli,023949330,ViaE,
Alberto,Burri,95,Venzia,2003940303,ViaF